{
  
  "development": {
    "username": "root",
    "password": "root",
    "database": "coffee_database",
    "host": "127.0.0.1",
    "dialect": "mysql",
    "operatorsAliases": false
  },
  "test": {
    "username": "root",
    "password": "root",
    "database": "coffee_database",
    "host": "127.0.0.1",

    "dialect": "mysql",
    "operatorsAliases": false
  },
  "production": {
    "username": "root",
    "password": "root",
    "database": "coffee_database",
    "host": "127.0.0.1",
    "dialect": "mysql",
    "operatorsAliases": false
  }
}
